/opt/packages/cuda/8.0/bin/nvcc -o test_mmma_cuda.o -Xcompiler -fPIC -g -I/opt/intel/compilers_and_libraries_2017.4.196/linux/mpi/intel64/include -arch=sm_37  -c --compiler-options="-fPIC  -Wall -Wwrite-strings -Wno-strict-aliasing -Wno-unknown-pragmas -fstack-protector -fvisibility=hidden -g3   -I/home/tisaac/opt/petsc/cse6230-single/include -I/home/tisaac/opt/petsc/cse6230-single/include -I/opt/packages/cuda/8.0/include   " `pwd`/test_mmma_cuda.cu
/opt/packages/cuda/8.0/bin/nvcc -o mmma_cuda.o -Xcompiler -fPIC -g -I/opt/intel/compilers_and_libraries_2017.4.196/linux/mpi/intel64/include -arch=sm_37  -c --compiler-options="-fPIC  -Wall -Wwrite-strings -Wno-strict-aliasing -Wno-unknown-pragmas -fstack-protector -fvisibility=hidden -g3   -I/home/tisaac/opt/petsc/cse6230-single/include -I/home/tisaac/opt/petsc/cse6230-single/include -I/opt/packages/cuda/8.0/include   " `pwd`/mmma_cuda.cu
/usr/bin/ar cr libmmma.a mmma_cuda.o
if test -n ""; then /usr/bin/ar cr  mmma_cuda.lo; fi
/usr/bin/rm -f mmma_cuda.o mmma_cuda.lo
mpicc -o mmma.o -c -fPIC  -Wall -Wwrite-strings -Wno-strict-aliasing -Wno-unknown-pragmas -fstack-protector -fvisibility=hidden -g3   -I/home/tisaac/opt/petsc/cse6230-single/include -I/home/tisaac/opt/petsc/cse6230-single/include -I/opt/packages/cuda/8.0/include    `pwd`/mmma.c
/usr/bin/ar cr libmmma.a mmma.o
if test -n ""; then /usr/bin/ar cr  mmma.lo; fi
/usr/bin/rm -f mmma.o mmma.lo
mpicc -fPIC  -Wall -Wwrite-strings -Wno-strict-aliasing -Wno-unknown-pragmas -fstack-protector -fvisibility=hidden -g3  -o test_mmma test_mmma_cuda.o -Wl,-rpath,/home/tisaac/opt/petsc/cse6230-single/lib -L/home/tisaac/opt/petsc/cse6230-single/lib -Wl,-rpath,/opt/intel/compilers_and_libraries_2017.4.196/linux/mkl/lib/intel64 -L/opt/intel/compilers_and_libraries_2017.4.196/linux/mkl/lib/intel64 -Wl,-rpath,/opt/packages/cuda/8.0/lib64 -L/opt/packages/cuda/8.0/lib64 -Wl,-rpath,/opt/intel/compilers_and_libraries_2017.4.196/linux/mpi/intel64/lib/release_mt -L/opt/intel/compilers_and_libraries_2017.4.196/linux/mpi/intel64/lib/release_mt -Wl,-rpath,/opt/intel/compilers_and_libraries_2017.4.196/linux/mpi/intel64/lib -L/opt/intel/compilers_and_libraries_2017.4.196/linux/mpi/intel64/lib -Wl,-rpath,/usr/lib/gcc/x86_64-redhat-linux/4.8.5 -L/usr/lib/gcc/x86_64-redhat-linux/4.8.5 -Wl,-rpath,/opt/intel/clck/2017.2.019/lib/intel64 -L/opt/intel/clck/2017.2.019/lib/intel64 -Wl,-rpath,/opt/intel/compilers_and_libraries_2017.4.196/linux/ipp/lib/intel64 -L/opt/intel/compilers_and_libraries_2017.4.196/linux/ipp/lib/intel64 -Wl,-rpath,/opt/intel/compilers_and_libraries_2017.4.196/linux/compiler/lib/intel64_lin -L/opt/intel/compilers_and_libraries_2017.4.196/linux/compiler/lib/intel64_lin -Wl,-rpath,/opt/intel/compilers_and_libraries_2017.4.196/linux/mkl/lib/intel64_lin -L/opt/intel/compilers_and_libraries_2017.4.196/linux/mkl/lib/intel64_lin -Wl,-rpath,/opt/intel/compilers_and_libraries_2017.4.196/linux/tbb/lib/intel64/gcc4.7 -L/opt/intel/compilers_and_libraries_2017.4.196/linux/tbb/lib/intel64/gcc4.7 -Wl,-rpath,/opt/intel/compilers_and_libraries_2017.4.196/linux/daal/lib/intel64_lin -L/opt/intel/compilers_and_libraries_2017.4.196/linux/daal/lib/intel64_lin -Wl,-rpath,/opt/intel/compilers_and_libraries_2017.4.196/linux/tbb/lib/intel64_lin/gcc4.4 -L/opt/intel/compilers_and_libraries_2017.4.196/linux/tbb/lib/intel64_lin/gcc4.4 -Wl,-rpath,/opt/intel/compilers_and_libraries_2017.4.196/linux/mpi/intel64/lib/debug_mt -L/opt/intel/compilers_and_libraries_2017.4.196/linux/mpi/intel64/lib/debug_mt -Wl,-rpath,/opt/intel/mpi-rt/2107.0.0/intel64/lib/release_mt -Wl,-rpath,/opt/intel/mpi-rt/2017.0.0/intel64/lib -Wl,-rpath,/opt/intel/mpi-rt/2017.0.0/intel64/lib/debug_mt -lpetsc -lmkl_intel_lp64 -lmkl_sequential -lmkl_core -lpthread -lcufft -lcublas -lcudart -lcusparse -lX11 -lm -lgfortran -lm -lgfortran -lm -lquadmath -lmpicxx -lstdc++ -lm -Wl,-rpath,/opt/intel/compilers_and_libraries_2017.4.196/linux/mpi/intel64/lib/release_mt -L/opt/intel/compilers_and_libraries_2017.4.196/linux/mpi/intel64/lib/release_mt -Wl,-rpath,/opt/intel/compilers_and_libraries_2017.4.196/linux/mpi/intel64/lib -L/opt/intel/compilers_and_libraries_2017.4.196/linux/mpi/intel64/lib -Wl,-rpath,/usr/lib/gcc/x86_64-redhat-linux/4.8.5 -L/usr/lib/gcc/x86_64-redhat-linux/4.8.5 -Wl,-rpath,/opt/intel/clck/2017.2.019/lib/intel64 -L/opt/intel/clck/2017.2.019/lib/intel64 -Wl,-rpath,/opt/intel/compilers_and_libraries_2017.4.196/linux/ipp/lib/intel64 -L/opt/intel/compilers_and_libraries_2017.4.196/linux/ipp/lib/intel64 -Wl,-rpath,/opt/intel/compilers_and_libraries_2017.4.196/linux/compiler/lib/intel64_lin -L/opt/intel/compilers_and_libraries_2017.4.196/linux/compiler/lib/intel64_lin -Wl,-rpath,/opt/intel/compilers_and_libraries_2017.4.196/linux/mkl/lib/intel64_lin -L/opt/intel/compilers_and_libraries_2017.4.196/linux/mkl/lib/intel64_lin -Wl,-rpath,/opt/intel/compilers_and_libraries_2017.4.196/linux/tbb/lib/intel64/gcc4.7 -L/opt/intel/compilers_and_libraries_2017.4.196/linux/tbb/lib/intel64/gcc4.7 -Wl,-rpath,/opt/intel/compilers_and_libraries_2017.4.196/linux/daal/lib/intel64_lin -L/opt/intel/compilers_and_libraries_2017.4.196/linux/daal/lib/intel64_lin -Wl,-rpath,/opt/intel/compilers_and_libraries_2017.4.196/linux/tbb/lib/intel64_lin/gcc4.4 -L/opt/intel/compilers_and_libraries_2017.4.196/linux/tbb/lib/intel64_lin/gcc4.4 -ldl -Wl,-rpath,/opt/intel/compilers_and_libraries_2017.4.196/linux/mpi/intel64/lib/release_mt -Wl,-rpath,/opt/intel/compilers_and_libraries_2017.4.196/linux/mpi/intel64/lib -Wl,-rpath,/opt/intel/mpi-rt/2107.0.0/intel64/lib/release_mt -Wl,-rpath,/opt/intel/mpi-rt/2017.0.0/intel64/lib -lmpifort -lmpi -lmpigi -lrt -lpthread -lgcc_s -ldl  libmmma.a -lcurand
true test_mmma
/usr/bin/rm -f -f test_mmma_cuda.o
20c38e1a1690a15fb54f4c17b37a72dd129867c0
:100644 100644 49cb43b1fd43d91f63a1a61c5b2c48d958a09cf0 0000000000000000000000000000000000000000 M	Matrix-Matrix-Multiply-Add/parallel/testKernel.cuh
/home/hh223/sgemm-final
gpu036.pvt.bridges.psc.edu
Wed Dec  6 22:50:17 EST 2017
Running 4 tests of MMMAApplySingleDevice() with 2 devices
  Test 0: scale 22
    Test dimensions: C = [2048 x 2048], A = [2048 x 1389], B = [1389 x 2048]
[INFO] Measured effective performance: 2000.67 GFlops, 5.83 ms
[INFO] Measured effective performance: 2297.58 GFlops, 5.07 ms
[INFO] Measured effective performance: 2275.66 GFlops, 5.12 ms
[INFO] Measured effective performance: 2178.26 GFlops, 5.35 ms
[INFO] Measured effective performance: 2281.40 GFlops, 5.11 ms
[INFO] Measured effective performance: 2284.49 GFlops, 5.10 ms
[INFO] Measured effective performance: 2286.73 GFlops, 5.10 ms
[INFO] Measured effective performance: 2294.02 GFlops, 5.08 ms
[INFO] Measured effective performance: 2298.01 GFlops, 5.07 ms
[INFO] Measured effective performance: 2276.93 GFlops, 5.12 ms
[INFO] Measured effective performance: 2298.01 GFlops, 5.07 ms
    Test results: passed, average time (10 tests) 0.00513659, ***FMAs per second 1.13419e+12***
  Test 1: scale 24
    Test dimensions: C = [4096 x 4096], A = [4096 x 1038], B = [1038 x 4096]
[INFO] Measured effective performance: 3368.73 GFlops, 10.35 ms
[INFO] Measured effective performance: 2881.48 GFlops, 12.10 ms
[INFO] Measured effective performance: 2887.96 GFlops, 12.07 ms
[INFO] Measured effective performance: 2880.28 GFlops, 12.10 ms
[INFO] Measured effective performance: 2883.12 GFlops, 12.09 ms
[INFO] Measured effective performance: 2886.25 GFlops, 12.08 ms
[INFO] Measured effective performance: 2886.25 GFlops, 12.08 ms
[INFO] Measured effective performance: 2877.96 GFlops, 12.11 ms
[INFO] Measured effective performance: 2887.17 GFlops, 12.08 ms
[INFO] Measured effective performance: 2845.48 GFlops, 12.25 ms
[INFO] Measured effective performance: 2705.74 GFlops, 12.88 ms
    Test results: passed, average time (10 tests) 0.0122012, ***FMAs per second 1.4273e+12***
  Test 2: scale 26
    Test dimensions: C = [8192 x 8192], A = [8192 x 3554], B = [3554 x 8192]
[INFO] Measured effective performance: 4892.27 GFlops, 97.53 ms
[INFO] Measured effective performance: 4615.89 GFlops, 103.37 ms
[INFO] Measured effective performance: 4611.07 GFlops, 103.48 ms
[INFO] Measured effective performance: 4594.42 GFlops, 103.85 ms
[INFO] Measured effective performance: 4586.51 GFlops, 104.03 ms
[INFO] Measured effective performance: 4627.79 GFlops, 103.10 ms
[INFO] Measured effective performance: 4663.84 GFlops, 102.31 ms
[INFO] Measured effective performance: 4604.79 GFlops, 103.62 ms
[INFO] Measured effective performance: 4586.95 GFlops, 104.02 ms
[INFO] Measured effective performance: 4622.06 GFlops, 103.23 ms
[INFO] Measured effective performance: 4643.20 GFlops, 102.76 ms
    Test results: passed, average time (10 tests) 0.103429, ***FMAs per second 2.30597e+12***
  Test 3: scale 28
    Test dimensions: C = [16384 x 16384], A = [16384 x 4730], B = [4730 x 16384]
[INFO] Measured effective performance: 5248.47 GFlops, 483.94 ms
[INFO] Measured effective performance: 5270.08 GFlops, 481.95 ms
[INFO] Measured effective performance: 5265.86 GFlops, 482.34 ms
[INFO] Measured effective performance: 5294.62 GFlops, 479.72 ms
[INFO] Measured effective performance: 5292.26 GFlops, 479.93 ms
[INFO] Measured effective performance: 5263.76 GFlops, 482.53 ms
[INFO] Measured effective performance: 5273.91 GFlops, 481.60 ms
[INFO] Measured effective performance: 5262.77 GFlops, 482.62 ms
[INFO] Measured effective performance: 5283.93 GFlops, 480.69 ms
[INFO] Measured effective performance: 5272.12 GFlops, 481.77 ms
[INFO] Measured effective performance: 5277.57 GFlops, 481.27 ms
    Test results: passed, average time (10 tests) 0.481497, ***FMAs per second 2.63699e+12***
===Harmonic mean: 1.67002e+12 FMAs per second===
Wed Dec  6 22:50:32 EST 2017
